{
	"services":

	[

		{"id":"1",	"routeName":"",	"routeLabel":"resources"},
		{"id":"2",	"routeName":"",	"routeLabel":"documents"},
		{"id":"3",	"routeName":"",	"routeLabel":"reminders"},
		{"id":"4",	"routeName":"",	"routeLabel":"add service"},
		{"id":"5",	"routeName":"",	"routeLabel":"account details"}

	]
}
