{
	"services" :

	[

		{"routeName":"manage.website",		"routeLabel":"website manager"},
		{"routeName":"",									"routeLabel":"place manager"},
		{"routeName":"",									"routeLabel":"agency manager"},
		{"routeName":"",									"routeLabel":"resource manager"},
		{"routeName":"",									"routeLabel":"registered agent manager"},
		{"routeName":"",									"routeLabel":"product manager"},
		{"routeName":"manage.document",		"routeLabel":"document manager"}

	]
}

